Spatially explicit models for distance sampling data
…
## `summarise()` ungrouping output (override with `.groups` argument)

# add the Region.Label, same for every row
transects$Region.Label <- "StudyArea"

We can look at this:

transects

## # A tibble: 69 x 3
##    Sample.Label     Effort Region.Label
##    <chr>             <dbl> <chr>       
##  1 en0439520040624 144045. StudyArea   
##  2 en0439520040625 167647. StudyArea   
##  3 en0439520040626  59997. StudyArea   
##  4 en0439520040627  33822. StudyArea   
##  5 en0439520040628 147415. StudyArea   
##  6 en0439520040629 101108. StudyArea   
##  7 en0439520040630  98119. StudyArea   
##  8 en0439520040701 147763. StudyArea   
##  9 en0439520040702 172935. StudyArea   
## 10 en0439520040703 156280. StudyArea   
## #  with 59 more rows
…
